…
    ## Warning: `as.tibble()` was deprecated in tibble 2.0.0.
    ## ℹ Please use `as_tibble()` instead.
    ## ℹ The signature and semantics have changed, see `?as_tibble`.
    ## This warning is displayed once every 8 hours.
    ## Call `lifecycle::last_lifecycle_warnings()` to see where this warning was
    ## generated.

``` r
colnames(dist) <- c("B","A","dist")

dist
```

    ## # A tibble: 5,184 × 3
    ##    B       A          dist
    ##    <fct>   <fct>     <dbl>
    ##  1 D.car-2 D.car-2 0      
    ##  2 D.car-3 D.car-2 0.00415
    ##  3 D.car-4 D.car-2 0.00497
    ##  4 D.car-5 D.car-2 0.00345
    ##  5 D.car-6 D.car-2 0.00826
    ##  6 D.car-7 D.car-2 0.00533
    ##  7 D.equ-1 D.car-2 0.0468 
    ##  8 D.equ-2 D.car-2 0.0468 
    ##  9 D.equ-3 D.car-2 0.0468 
    ## 10 D.equ-4 D.car-2 0.0468 
    ## # ℹ 5,174 more rows

``` r
wil <- c("D.equ-1","D.equ-2","D.equ-3","D.equ-4","D.ins-1","D.ins-2","D.ins-3","D.ins-4","D.tro-1","D.tro-2","D.tro-3","D.tro-4","D.tro-5","Dpau06-1","Dpau06-2","Dpau06-3","Dpau06-4","Dpau06-5","Dpau06-6","Dpau06-7","Dpau06-8","Dpau06-9","Dwil17-2","Dwil17-3","Dwil17-4")

mel <- c("D.sec-1","D.sec-2","D.sec-3","D.sec-4","D.sec-5","D.sec-6","DmelR7-1","DmelR7-10","DmelR7-11","DmelR7-12","DmelR7-13","DmelR7-14","DmelR7-15","DmelR7-16","DmelR7-17","DmelR7-18","DmelR7-19","DmelR7-2","DmelR7-20","DmelR7-21","DmelR7-3","DmelR7-4","DmelR7-5","DmelR7-6","DmelR7-7","DmelR7-8","DmelR7-9","DsimS9-1","DsimS9-10","DsimS9-11","DsimS9-12","DsimS9-13","DsimS9-14","DsimS9-2","DsimS9-3","DsimS9-4","DsimS9-5","DsimS9-6","DsimS9-7","DsimS9-8","DsimS9-9")

(wil_tab <- dist %>% filter(A %in% wil) %>% select(A, B, dist))
```

    ## # A tibble: 1,800 × 3
    ##    A       B          dist
    ##    <fct>   <fct>     <dbl>
    ##  1 D.equ-1 D.car-2 0.0468 
    ##  2 D.equ-1 D.car-3 0.0468 
    ##  3 D.equ-1 D.car-4 0.0468 
    ##  4 D.equ-1 D.car-5 0.0468 
    ##  5 D.equ-1 D.car-6 0.0468 
    ##  6 D.equ-1 D.car-7 0.0468 
    ##  7 D.equ-1 D.equ-1 0      
    ##  8 D.equ-1 D.equ-2 0.00147
    ##  9 D.equ-1 D.equ-3 0.0282 
    ## 10 D.equ-1 D.equ-4 0.00195
    ## # ℹ 1,790 more rows

``` r
(mel_tab <- dist %>% filter(A %in% mel) %>% select(A, B, dist))
```

    ## # A tibble: 2,952 × 3
    ##    A       B         dist
    ##    <fct>   <fct>    <dbl>
    ##  1 D.sec-1 D.car-2 0.0468
    ##  2 D.sec-1 D.car-3 0.0468
    ##  3 D.sec-1 D.car-4 0.0468
    ##  4 D.sec-1 D.car-5 0.0468
    ##  5 D.sec-1 D.car-6 0.0468
    ##  6 D.sec-1 D.car-7 0.0468
    ##  7 D.sec-1 D.equ-1 0.0225
    ##  8 D.sec-1 D.equ-2 0.0225
    ##  9 D.sec-1 D.equ-3 0.0282
    ## 10 D.sec-1 D.equ-4 0.0225
    ## # ℹ 2,942 more rows
…
